<mxfile host="app.diagrams.net" modified="2022-06-25T11:41:50.642Z" agent="5.0 (Windows NT 10.0; Win64; x64) AppleWebKit/537.36 (KHTML, like Gecko) Chrome/102.0.5005.115 Safari/537.36 OPR/88.0.4412.40" etag="bzhLEYEHBbsTRgG8TSf8" version="20.0.3" type="gitlab">
  <diagram id="qFQpZ0GQ8sMyuNC2D61T" name="Page-1">
    <mxGraphModel dx="2883" dy="1217" grid="1" gridSize="10" guides="1" tooltips="1" connect="1" arrows="1" fold="1" page="1" pageScale="1" pageWidth="827" pageHeight="1169" math="0" shadow="0">
      <root>
        <mxCell id="0" />
        <mxCell id="1" parent="0" />
        <mxCell id="vWF8Npb9nM2_POeiquQT-181" value="" style="rounded=0;whiteSpace=wrap;html=1;dashed=1;fillColor=#b0e3e6;strokeColor=#0e8088;" vertex="1" parent="1">
          <mxGeometry x="1010" y="562.5" width="370" height="307.5" as="geometry" />
        </mxCell>
        <mxCell id="vWF8Npb9nM2_POeiquQT-178" value="" style="rounded=0;whiteSpace=wrap;html=1;dashed=1;fillColor=#bac8d3;strokeColor=#23445d;" vertex="1" parent="1">
          <mxGeometry x="1010" y="930" width="600" height="120" as="geometry" />
        </mxCell>
        <mxCell id="vWF8Npb9nM2_POeiquQT-175" value="" style="rounded=0;whiteSpace=wrap;html=1;dashed=1;fillColor=#fad7ac;strokeColor=#b46504;" vertex="1" parent="1">
          <mxGeometry x="1010" y="210" width="590" height="300" as="geometry" />
        </mxCell>
        <mxCell id="vWF8Npb9nM2_POeiquQT-151" value="" style="rounded=0;whiteSpace=wrap;html=1;dashed=1;fillColor=#e1d5e7;strokeColor=#9673a6;" vertex="1" parent="1">
          <mxGeometry x="234" y="1070" width="506" height="440" as="geometry" />
        </mxCell>
        <mxCell id="vWF8Npb9nM2_POeiquQT-190" style="edgeStyle=orthogonalEdgeStyle;rounded=0;orthogonalLoop=1;jettySize=auto;html=1;entryX=0.5;entryY=1;entryDx=0;entryDy=0;fontColor=#000000;startArrow=classic;startFill=1;" edge="1" parent="1" source="vWF8Npb9nM2_POeiquQT-149" target="vWF8Npb9nM2_POeiquQT-52">
          <mxGeometry relative="1" as="geometry">
            <Array as="points">
              <mxPoint x="69" y="1530" />
              <mxPoint x="1520" y="1530" />
            </Array>
          </mxGeometry>
        </mxCell>
        <mxCell id="vWF8Npb9nM2_POeiquQT-149" value="" style="rounded=0;whiteSpace=wrap;html=1;dashed=1;fillColor=#CCFFFF;strokeColor=default;" vertex="1" parent="1">
          <mxGeometry x="-20.56" y="370" width="180" height="1000" as="geometry" />
        </mxCell>
        <mxCell id="vWF8Npb9nM2_POeiquQT-180" style="edgeStyle=orthogonalEdgeStyle;rounded=0;orthogonalLoop=1;jettySize=auto;html=1;fontColor=#FFFFFF;startArrow=none;startFill=0;" edge="1" parent="1" source="vWF8Npb9nM2_POeiquQT-82" target="vWF8Npb9nM2_POeiquQT-56">
          <mxGeometry relative="1" as="geometry">
            <Array as="points">
              <mxPoint x="733" y="870" />
              <mxPoint x="733" y="940" />
            </Array>
          </mxGeometry>
        </mxCell>
        <mxCell id="vWF8Npb9nM2_POeiquQT-199" value="DataSouurce&lt;br&gt;Proxy" style="edgeLabel;html=1;align=center;verticalAlign=middle;resizable=0;points=[];fontColor=#000000;" vertex="1" connectable="0" parent="vWF8Npb9nM2_POeiquQT-180">
          <mxGeometry x="-0.1392" y="1" relative="1" as="geometry">
            <mxPoint x="11" y="7" as="offset" />
          </mxGeometry>
        </mxCell>
        <mxCell id="vWF8Npb9nM2_POeiquQT-82" value="" style="rounded=0;whiteSpace=wrap;html=1;dashed=1;fillColor=#d5e8d4;strokeColor=#82b366;" vertex="1" parent="1">
          <mxGeometry x="185" y="760" width="520" height="192.5" as="geometry" />
        </mxCell>
        <mxCell id="vWF8Npb9nM2_POeiquQT-90" value="" style="edgeStyle=orthogonalEdgeStyle;rounded=0;orthogonalLoop=1;jettySize=auto;html=1;startArrow=none;startFill=0;" edge="1" parent="1" source="vWF8Npb9nM2_POeiquQT-62" target="vWF8Npb9nM2_POeiquQT-89">
          <mxGeometry relative="1" as="geometry" />
        </mxCell>
        <mxCell id="vWF8Npb9nM2_POeiquQT-62" value="" style="rounded=0;whiteSpace=wrap;html=1;dashed=1;fillColor=#dae8fc;strokeColor=#6c8ebf;" vertex="1" parent="1">
          <mxGeometry x="730" y="270" width="180" height="500" as="geometry" />
        </mxCell>
        <mxCell id="vWF8Npb9nM2_POeiquQT-4" style="edgeStyle=orthogonalEdgeStyle;rounded=0;orthogonalLoop=1;jettySize=auto;html=1;entryX=0;entryY=0;entryDx=0;entryDy=30;entryPerimeter=0;" edge="1" parent="1" source="vWF8Npb9nM2_POeiquQT-1" target="vWF8Npb9nM2_POeiquQT-3">
          <mxGeometry relative="1" as="geometry">
            <Array as="points">
              <mxPoint x="230" y="470" />
              <mxPoint x="230" y="510" />
            </Array>
          </mxGeometry>
        </mxCell>
        <mxCell id="vWF8Npb9nM2_POeiquQT-145" value="GraphQl" style="edgeLabel;html=1;align=center;verticalAlign=middle;resizable=0;points=[];" vertex="1" connectable="0" parent="vWF8Npb9nM2_POeiquQT-4">
          <mxGeometry x="-0.7566" y="1" relative="1" as="geometry">
            <mxPoint x="10" y="1" as="offset" />
          </mxGeometry>
        </mxCell>
        <mxCell id="vWF8Npb9nM2_POeiquQT-124" style="edgeStyle=orthogonalEdgeStyle;rounded=0;orthogonalLoop=1;jettySize=auto;html=1;entryX=-0.002;entryY=0.382;entryDx=0;entryDy=0;startArrow=none;startFill=0;entryPerimeter=0;" edge="1" parent="1" source="vWF8Npb9nM2_POeiquQT-1" target="vWF8Npb9nM2_POeiquQT-34">
          <mxGeometry relative="1" as="geometry">
            <Array as="points">
              <mxPoint x="230" y="450" />
              <mxPoint x="230" y="191" />
            </Array>
          </mxGeometry>
        </mxCell>
        <mxCell id="vWF8Npb9nM2_POeiquQT-147" value="REST" style="edgeLabel;html=1;align=center;verticalAlign=middle;resizable=0;points=[];" vertex="1" connectable="0" parent="vWF8Npb9nM2_POeiquQT-124">
          <mxGeometry x="-0.8965" relative="1" as="geometry">
            <mxPoint x="-8" as="offset" />
          </mxGeometry>
        </mxCell>
        <mxCell id="vWF8Npb9nM2_POeiquQT-1" value="UI диспетчерезации" style="rounded=0;whiteSpace=wrap;html=1;" vertex="1" parent="1">
          <mxGeometry x="-10.560000000000002" y="420" width="160" height="80" as="geometry" />
        </mxCell>
        <mxCell id="vWF8Npb9nM2_POeiquQT-10" style="edgeStyle=orthogonalEdgeStyle;rounded=0;orthogonalLoop=1;jettySize=auto;html=1;entryX=0;entryY=0.5;entryDx=0;entryDy=0;" edge="1" parent="1" source="vWF8Npb9nM2_POeiquQT-3" target="vWF8Npb9nM2_POeiquQT-9">
          <mxGeometry relative="1" as="geometry" />
        </mxCell>
        <mxCell id="vWF8Npb9nM2_POeiquQT-182" value="&lt;font color=&quot;#000000&quot;&gt;GraphQL&lt;/font&gt;" style="edgeLabel;html=1;align=center;verticalAlign=middle;resizable=0;points=[];fontColor=#FFFFFF;" vertex="1" connectable="0" parent="vWF8Npb9nM2_POeiquQT-10">
          <mxGeometry x="0.2093" y="-1" relative="1" as="geometry">
            <mxPoint as="offset" />
          </mxGeometry>
        </mxCell>
        <mxCell id="vWF8Npb9nM2_POeiquQT-59" style="edgeStyle=orthogonalEdgeStyle;rounded=0;orthogonalLoop=1;jettySize=auto;html=1;entryX=0;entryY=0.5;entryDx=0;entryDy=0;exitX=1.012;exitY=0.42;exitDx=0;exitDy=0;exitPerimeter=0;" edge="1" parent="1" source="vWF8Npb9nM2_POeiquQT-3" target="vWF8Npb9nM2_POeiquQT-12">
          <mxGeometry relative="1" as="geometry" />
        </mxCell>
        <mxCell id="vWF8Npb9nM2_POeiquQT-183" value="GraphQL" style="edgeLabel;html=1;align=center;verticalAlign=middle;resizable=0;points=[];fontColor=#000000;" vertex="1" connectable="0" parent="vWF8Npb9nM2_POeiquQT-59">
          <mxGeometry x="0.6757" y="1" relative="1" as="geometry">
            <mxPoint x="-14" y="51" as="offset" />
          </mxGeometry>
        </mxCell>
        <mxCell id="vWF8Npb9nM2_POeiquQT-60" style="edgeStyle=orthogonalEdgeStyle;rounded=0;orthogonalLoop=1;jettySize=auto;html=1;entryX=0.001;entryY=0.545;entryDx=0;entryDy=0;entryPerimeter=0;exitX=1.005;exitY=0.595;exitDx=0;exitDy=0;exitPerimeter=0;" edge="1" parent="1" source="vWF8Npb9nM2_POeiquQT-3" target="vWF8Npb9nM2_POeiquQT-13">
          <mxGeometry relative="1" as="geometry" />
        </mxCell>
        <mxCell id="vWF8Npb9nM2_POeiquQT-148" value="GraphQL" style="edgeLabel;html=1;align=center;verticalAlign=middle;resizable=0;points=[];" vertex="1" connectable="0" parent="vWF8Npb9nM2_POeiquQT-60">
          <mxGeometry x="-0.1536" y="1" relative="1" as="geometry">
            <mxPoint y="12" as="offset" />
          </mxGeometry>
        </mxCell>
        <mxCell id="vWF8Npb9nM2_POeiquQT-3" value="Шлюз API" style="shape=cube;whiteSpace=wrap;html=1;boundedLbl=1;backgroundOutline=1;darkOpacity=0.05;darkOpacity2=0.1;" vertex="1" parent="1">
          <mxGeometry x="320" y="480" width="120" height="80" as="geometry" />
        </mxCell>
        <mxCell id="vWF8Npb9nM2_POeiquQT-8" style="edgeStyle=orthogonalEdgeStyle;rounded=0;orthogonalLoop=1;jettySize=auto;html=1;entryX=-0.027;entryY=0.55;entryDx=0;entryDy=0;entryPerimeter=0;" edge="1" parent="1" source="vWF8Npb9nM2_POeiquQT-5" target="vWF8Npb9nM2_POeiquQT-3">
          <mxGeometry relative="1" as="geometry">
            <Array as="points">
              <mxPoint x="230" y="580" />
              <mxPoint x="230" y="524" />
            </Array>
          </mxGeometry>
        </mxCell>
        <mxCell id="vWF8Npb9nM2_POeiquQT-146" value="GraphQl" style="edgeLabel;html=1;align=center;verticalAlign=middle;resizable=0;points=[];" vertex="1" connectable="0" parent="vWF8Npb9nM2_POeiquQT-8">
          <mxGeometry x="-0.2565" y="3" relative="1" as="geometry">
            <mxPoint x="-42" y="2" as="offset" />
          </mxGeometry>
        </mxCell>
        <mxCell id="vWF8Npb9nM2_POeiquQT-5" value="UI администратора ИС" style="rounded=0;whiteSpace=wrap;html=1;" vertex="1" parent="1">
          <mxGeometry x="-10.560000000000002" y="540" width="160" height="80" as="geometry" />
        </mxCell>
        <mxCell id="vWF8Npb9nM2_POeiquQT-7" style="edgeStyle=orthogonalEdgeStyle;rounded=0;orthogonalLoop=1;jettySize=auto;html=1;" edge="1" parent="1" source="vWF8Npb9nM2_POeiquQT-6" target="vWF8Npb9nM2_POeiquQT-45">
          <mxGeometry relative="1" as="geometry">
            <Array as="points">
              <mxPoint x="180" y="812" />
              <mxPoint x="180" y="812" />
            </Array>
          </mxGeometry>
        </mxCell>
        <mxCell id="vWF8Npb9nM2_POeiquQT-144" value="REST" style="edgeLabel;html=1;align=center;verticalAlign=middle;resizable=0;points=[];" vertex="1" connectable="0" parent="vWF8Npb9nM2_POeiquQT-7">
          <mxGeometry x="-0.6381" y="-3" relative="1" as="geometry">
            <mxPoint x="10" y="-5" as="offset" />
          </mxGeometry>
        </mxCell>
        <mxCell id="vWF8Npb9nM2_POeiquQT-6" value="UI генератора отчетности" style="rounded=0;whiteSpace=wrap;html=1;" vertex="1" parent="1">
          <mxGeometry x="-10.56" y="770" width="160" height="80" as="geometry" />
        </mxCell>
        <mxCell id="vWF8Npb9nM2_POeiquQT-65" style="edgeStyle=orthogonalEdgeStyle;rounded=0;orthogonalLoop=1;jettySize=auto;html=1;" edge="1" parent="1" source="vWF8Npb9nM2_POeiquQT-9" target="vWF8Npb9nM2_POeiquQT-62">
          <mxGeometry relative="1" as="geometry" />
        </mxCell>
        <mxCell id="vWF8Npb9nM2_POeiquQT-184" value="REST" style="edgeLabel;html=1;align=center;verticalAlign=middle;resizable=0;points=[];fontColor=#000000;" vertex="1" connectable="0" parent="vWF8Npb9nM2_POeiquQT-65">
          <mxGeometry x="-0.1981" y="-2" relative="1" as="geometry">
            <mxPoint y="-2" as="offset" />
          </mxGeometry>
        </mxCell>
        <mxCell id="vWF8Npb9nM2_POeiquQT-100" style="edgeStyle=orthogonalEdgeStyle;rounded=0;orthogonalLoop=1;jettySize=auto;html=1;startArrow=none;startFill=0;entryX=0.5;entryY=0;entryDx=0;entryDy=0;" edge="1" parent="1" source="vWF8Npb9nM2_POeiquQT-9" target="vWF8Npb9nM2_POeiquQT-82">
          <mxGeometry relative="1" as="geometry">
            <Array as="points">
              <mxPoint x="705" y="530" />
              <mxPoint x="705" y="710" />
              <mxPoint x="445" y="710" />
            </Array>
          </mxGeometry>
        </mxCell>
        <mxCell id="vWF8Npb9nM2_POeiquQT-156" value="REST" style="edgeLabel;html=1;align=center;verticalAlign=middle;resizable=0;points=[];" vertex="1" connectable="0" parent="vWF8Npb9nM2_POeiquQT-100">
          <mxGeometry x="0.1728" y="3" relative="1" as="geometry">
            <mxPoint x="7" y="-3" as="offset" />
          </mxGeometry>
        </mxCell>
        <mxCell id="vWF8Npb9nM2_POeiquQT-9" value="Оркестратор API модуля СМБ&amp;nbsp;&lt;br&gt;(conveyor-api)" style="rounded=0;whiteSpace=wrap;html=1;" vertex="1" parent="1">
          <mxGeometry x="520" y="480" width="160" height="80" as="geometry" />
        </mxCell>
        <mxCell id="vWF8Npb9nM2_POeiquQT-61" value="" style="edgeStyle=orthogonalEdgeStyle;rounded=0;orthogonalLoop=1;jettySize=auto;html=1;" edge="1" parent="1" source="vWF8Npb9nM2_POeiquQT-12" target="vWF8Npb9nM2_POeiquQT-55">
          <mxGeometry relative="1" as="geometry" />
        </mxCell>
        <mxCell id="vWF8Npb9nM2_POeiquQT-12" value="Сервис о сотрудниках и внутренней структуры" style="rounded=0;whiteSpace=wrap;html=1;" vertex="1" parent="1">
          <mxGeometry x="520" y="390" width="160" height="80" as="geometry" />
        </mxCell>
        <mxCell id="vWF8Npb9nM2_POeiquQT-13" value="Справочники" style="rounded=0;whiteSpace=wrap;html=1;" vertex="1" parent="1">
          <mxGeometry x="520" y="570" width="160" height="80" as="geometry" />
        </mxCell>
        <mxCell id="vWF8Npb9nM2_POeiquQT-74" style="edgeStyle=orthogonalEdgeStyle;rounded=0;orthogonalLoop=1;jettySize=auto;html=1;entryX=0;entryY=0.5;entryDx=0;entryDy=0;startArrow=none;startFill=0;" edge="1" parent="1" source="vWF8Npb9nM2_POeiquQT-18" target="vWF8Npb9nM2_POeiquQT-24">
          <mxGeometry relative="1" as="geometry">
            <Array as="points">
              <mxPoint x="965" y="710" />
              <mxPoint x="965" y="630" />
            </Array>
          </mxGeometry>
        </mxCell>
        <mxCell id="vWF8Npb9nM2_POeiquQT-95" value="REST" style="edgeLabel;html=1;align=center;verticalAlign=middle;resizable=0;points=[];" vertex="1" connectable="0" parent="vWF8Npb9nM2_POeiquQT-74">
          <mxGeometry x="0.4397" y="-1" relative="1" as="geometry">
            <mxPoint x="2" y="-1" as="offset" />
          </mxGeometry>
        </mxCell>
        <mxCell id="vWF8Npb9nM2_POeiquQT-75" style="edgeStyle=orthogonalEdgeStyle;rounded=0;orthogonalLoop=1;jettySize=auto;html=1;startArrow=none;startFill=0;entryX=0;entryY=0.5;entryDx=0;entryDy=0;" edge="1" parent="1" source="vWF8Npb9nM2_POeiquQT-18" target="vWF8Npb9nM2_POeiquQT-58">
          <mxGeometry relative="1" as="geometry">
            <Array as="points">
              <mxPoint x="1025" y="720" />
              <mxPoint x="1025" y="720" />
            </Array>
          </mxGeometry>
        </mxCell>
        <mxCell id="vWF8Npb9nM2_POeiquQT-93" value="REST" style="edgeLabel;html=1;align=center;verticalAlign=middle;resizable=0;points=[];" vertex="1" connectable="0" parent="vWF8Npb9nM2_POeiquQT-75">
          <mxGeometry x="0.1714" y="-2" relative="1" as="geometry">
            <mxPoint y="-2" as="offset" />
          </mxGeometry>
        </mxCell>
        <mxCell id="vWF8Npb9nM2_POeiquQT-76" style="edgeStyle=orthogonalEdgeStyle;rounded=0;orthogonalLoop=1;jettySize=auto;html=1;entryX=0;entryY=0.5;entryDx=0;entryDy=0;startArrow=none;startFill=0;" edge="1" parent="1" source="vWF8Npb9nM2_POeiquQT-18" target="vWF8Npb9nM2_POeiquQT-40">
          <mxGeometry relative="1" as="geometry">
            <Array as="points">
              <mxPoint x="965" y="730" />
              <mxPoint x="965" y="810" />
            </Array>
          </mxGeometry>
        </mxCell>
        <mxCell id="vWF8Npb9nM2_POeiquQT-92" value="REST" style="edgeLabel;html=1;align=center;verticalAlign=middle;resizable=0;points=[];" vertex="1" connectable="0" parent="vWF8Npb9nM2_POeiquQT-76">
          <mxGeometry x="0.3841" y="-1" relative="1" as="geometry">
            <mxPoint x="9" y="-1" as="offset" />
          </mxGeometry>
        </mxCell>
        <mxCell id="vWF8Npb9nM2_POeiquQT-101" style="edgeStyle=orthogonalEdgeStyle;rounded=0;orthogonalLoop=1;jettySize=auto;html=1;startArrow=none;startFill=0;" edge="1" parent="1" source="vWF8Npb9nM2_POeiquQT-18" target="vWF8Npb9nM2_POeiquQT-56">
          <mxGeometry relative="1" as="geometry">
            <Array as="points">
              <mxPoint x="950" y="740" />
              <mxPoint x="950" y="940" />
            </Array>
          </mxGeometry>
        </mxCell>
        <mxCell id="vWF8Npb9nM2_POeiquQT-198" value="DataSouurce&lt;br&gt;Proxy" style="edgeLabel;html=1;align=center;verticalAlign=middle;resizable=0;points=[];fontColor=#000000;" vertex="1" connectable="0" parent="vWF8Npb9nM2_POeiquQT-101">
          <mxGeometry x="-0.0022" y="-1" relative="1" as="geometry">
            <mxPoint as="offset" />
          </mxGeometry>
        </mxCell>
        <mxCell id="vWF8Npb9nM2_POeiquQT-18" value="Сервис информации по заявкам" style="rounded=0;whiteSpace=wrap;html=1;" vertex="1" parent="1">
          <mxGeometry x="745" y="680" width="160" height="80" as="geometry" />
        </mxCell>
        <mxCell id="vWF8Npb9nM2_POeiquQT-19" value="Сервис комментариев" style="rounded=0;whiteSpace=wrap;html=1;" vertex="1" parent="1">
          <mxGeometry x="535" y="772.5" width="160" height="80" as="geometry" />
        </mxCell>
        <mxCell id="vWF8Npb9nM2_POeiquQT-20" value="Сервис настроек" style="rounded=0;whiteSpace=wrap;html=1;" vertex="1" parent="1">
          <mxGeometry x="1045" y="1310.03" width="160" height="80" as="geometry" />
        </mxCell>
        <mxCell id="vWF8Npb9nM2_POeiquQT-117" value="" style="edgeStyle=orthogonalEdgeStyle;rounded=0;orthogonalLoop=1;jettySize=auto;html=1;startArrow=none;startFill=0;" edge="1" parent="1" source="vWF8Npb9nM2_POeiquQT-23" target="vWF8Npb9nM2_POeiquQT-116">
          <mxGeometry relative="1" as="geometry">
            <Array as="points">
              <mxPoint x="1120" y="220" />
              <mxPoint x="1530" y="220" />
            </Array>
          </mxGeometry>
        </mxCell>
        <mxCell id="vWF8Npb9nM2_POeiquQT-154" value="KAFKA" style="edgeLabel;html=1;align=center;verticalAlign=middle;resizable=0;points=[];" vertex="1" connectable="0" parent="vWF8Npb9nM2_POeiquQT-117">
          <mxGeometry x="-0.24" relative="1" as="geometry">
            <mxPoint as="offset" />
          </mxGeometry>
        </mxCell>
        <mxCell id="vWF8Npb9nM2_POeiquQT-23" value="Адаптер к системе принятия решений&lt;br&gt;(1594)" style="shape=step;perimeter=stepPerimeter;whiteSpace=wrap;html=1;fixedSize=1;" vertex="1" parent="1">
          <mxGeometry x="1040" y="240" width="160" height="80" as="geometry" />
        </mxCell>
        <mxCell id="vWF8Npb9nM2_POeiquQT-108" value="" style="edgeStyle=orthogonalEdgeStyle;rounded=0;orthogonalLoop=1;jettySize=auto;html=1;startArrow=none;startFill=0;" edge="1" parent="1" source="vWF8Npb9nM2_POeiquQT-24" target="vWF8Npb9nM2_POeiquQT-107">
          <mxGeometry relative="1" as="geometry" />
        </mxCell>
        <mxCell id="vWF8Npb9nM2_POeiquQT-187" value="TYK" style="edgeLabel;html=1;align=center;verticalAlign=middle;resizable=0;points=[];fontColor=#000000;" vertex="1" connectable="0" parent="vWF8Npb9nM2_POeiquQT-108">
          <mxGeometry x="-0.2194" y="-1" relative="1" as="geometry">
            <mxPoint y="-1" as="offset" />
          </mxGeometry>
        </mxCell>
        <mxCell id="vWF8Npb9nM2_POeiquQT-24" value="Адаптер к&lt;br&gt;КроссСсылки ЮЛ" style="shape=step;perimeter=stepPerimeter;whiteSpace=wrap;html=1;fixedSize=1;" vertex="1" parent="1">
          <mxGeometry x="1045" y="602.5" width="160" height="80" as="geometry" />
        </mxCell>
        <mxCell id="vWF8Npb9nM2_POeiquQT-132" style="edgeStyle=orthogonalEdgeStyle;rounded=0;orthogonalLoop=1;jettySize=auto;html=1;entryX=0.5;entryY=0;entryDx=0;entryDy=0;startArrow=none;startFill=0;" edge="1" parent="1" source="vWF8Npb9nM2_POeiquQT-26" target="vWF8Npb9nM2_POeiquQT-33">
          <mxGeometry relative="1" as="geometry">
            <Array as="points">
              <mxPoint x="350" y="1120" />
              <mxPoint x="650" y="1120" />
            </Array>
          </mxGeometry>
        </mxCell>
        <mxCell id="vWF8Npb9nM2_POeiquQT-170" value="REST" style="edgeLabel;html=1;align=center;verticalAlign=middle;resizable=0;points=[];" vertex="1" connectable="0" parent="vWF8Npb9nM2_POeiquQT-132">
          <mxGeometry x="-0.0291" relative="1" as="geometry">
            <mxPoint as="offset" />
          </mxGeometry>
        </mxCell>
        <mxCell id="vWF8Npb9nM2_POeiquQT-26" value="Сервис виджетов заключения андеррайтера" style="rounded=0;whiteSpace=wrap;html=1;" vertex="1" parent="1">
          <mxGeometry x="280" y="1140.03" width="160" height="80" as="geometry" />
        </mxCell>
        <mxCell id="vWF8Npb9nM2_POeiquQT-86" value="" style="edgeStyle=orthogonalEdgeStyle;rounded=0;orthogonalLoop=1;jettySize=auto;html=1;startArrow=none;startFill=0;" edge="1" parent="1" source="vWF8Npb9nM2_POeiquQT-28" target="vWF8Npb9nM2_POeiquQT-85">
          <mxGeometry relative="1" as="geometry" />
        </mxCell>
        <mxCell id="vWF8Npb9nM2_POeiquQT-202" value="SMTP" style="edgeLabel;html=1;align=center;verticalAlign=middle;resizable=0;points=[];fontColor=#000000;" vertex="1" connectable="0" parent="vWF8Npb9nM2_POeiquQT-86">
          <mxGeometry x="-0.3689" y="1" relative="1" as="geometry">
            <mxPoint x="6" y="1" as="offset" />
          </mxGeometry>
        </mxCell>
        <mxCell id="vWF8Npb9nM2_POeiquQT-28" value="Сервис почтовых нотификаций для пользователей" style="rounded=0;whiteSpace=wrap;html=1;" vertex="1" parent="1">
          <mxGeometry x="1050" y="1060" width="160" height="80" as="geometry" />
        </mxCell>
        <mxCell id="vWF8Npb9nM2_POeiquQT-29" value="Сервис алгоритмов (срок, сложность, емкость заявки)" style="rounded=0;whiteSpace=wrap;html=1;" vertex="1" parent="1">
          <mxGeometry x="1040" y="110" width="160" height="80" as="geometry" />
        </mxCell>
        <mxCell id="vWF8Npb9nM2_POeiquQT-119" style="edgeStyle=orthogonalEdgeStyle;rounded=0;orthogonalLoop=1;jettySize=auto;html=1;entryX=0;entryY=0.5;entryDx=0;entryDy=0;startArrow=none;startFill=0;" edge="1" parent="1" source="vWF8Npb9nM2_POeiquQT-30" target="vWF8Npb9nM2_POeiquQT-48">
          <mxGeometry relative="1" as="geometry">
            <Array as="points">
              <mxPoint x="260" y="1310.03" />
              <mxPoint x="260" y="1270.03" />
            </Array>
          </mxGeometry>
        </mxCell>
        <mxCell id="vWF8Npb9nM2_POeiquQT-166" value="WS" style="edgeLabel;html=1;align=center;verticalAlign=middle;resizable=0;points=[];" vertex="1" connectable="0" parent="vWF8Npb9nM2_POeiquQT-119">
          <mxGeometry x="-0.5245" relative="1" as="geometry">
            <mxPoint x="20" as="offset" />
          </mxGeometry>
        </mxCell>
        <mxCell id="vWF8Npb9nM2_POeiquQT-120" style="edgeStyle=orthogonalEdgeStyle;rounded=0;orthogonalLoop=1;jettySize=auto;html=1;entryX=0;entryY=0.5;entryDx=0;entryDy=0;startArrow=none;startFill=0;" edge="1" parent="1" source="vWF8Npb9nM2_POeiquQT-30" target="vWF8Npb9nM2_POeiquQT-49">
          <mxGeometry relative="1" as="geometry">
            <Array as="points">
              <mxPoint x="260" y="1330.03" />
              <mxPoint x="260" y="1370.03" />
            </Array>
          </mxGeometry>
        </mxCell>
        <mxCell id="vWF8Npb9nM2_POeiquQT-167" value="WS" style="edgeLabel;html=1;align=center;verticalAlign=middle;resizable=0;points=[];" vertex="1" connectable="0" parent="vWF8Npb9nM2_POeiquQT-120">
          <mxGeometry x="-0.579" y="-2" relative="1" as="geometry">
            <mxPoint y="-2" as="offset" />
          </mxGeometry>
        </mxCell>
        <mxCell id="vWF8Npb9nM2_POeiquQT-121" style="edgeStyle=orthogonalEdgeStyle;rounded=0;orthogonalLoop=1;jettySize=auto;html=1;startArrow=none;startFill=0;" edge="1" parent="1" source="vWF8Npb9nM2_POeiquQT-30">
          <mxGeometry relative="1" as="geometry">
            <mxPoint x="280" y="1180.03" as="targetPoint" />
            <Array as="points">
              <mxPoint x="250" y="1300.03" />
              <mxPoint x="250" y="1180.03" />
              <mxPoint x="280" y="1180.03" />
            </Array>
          </mxGeometry>
        </mxCell>
        <mxCell id="vWF8Npb9nM2_POeiquQT-169" value="WS" style="edgeLabel;html=1;align=center;verticalAlign=middle;resizable=0;points=[];" vertex="1" connectable="0" parent="vWF8Npb9nM2_POeiquQT-121">
          <mxGeometry x="-0.78" relative="1" as="geometry">
            <mxPoint x="3" as="offset" />
          </mxGeometry>
        </mxCell>
        <mxCell id="vWF8Npb9nM2_POeiquQT-122" style="edgeStyle=orthogonalEdgeStyle;rounded=0;orthogonalLoop=1;jettySize=auto;html=1;startArrow=none;startFill=0;entryX=0;entryY=0.5;entryDx=0;entryDy=0;" edge="1" parent="1" source="vWF8Npb9nM2_POeiquQT-30" target="vWF8Npb9nM2_POeiquQT-50">
          <mxGeometry relative="1" as="geometry">
            <Array as="points">
              <mxPoint x="250" y="1340.03" />
              <mxPoint x="250" y="1460.03" />
            </Array>
          </mxGeometry>
        </mxCell>
        <mxCell id="vWF8Npb9nM2_POeiquQT-168" value="WS" style="edgeLabel;html=1;align=center;verticalAlign=middle;resizable=0;points=[];" vertex="1" connectable="0" parent="vWF8Npb9nM2_POeiquQT-122">
          <mxGeometry x="-0.5565" y="-2" relative="1" as="geometry">
            <mxPoint x="5" as="offset" />
          </mxGeometry>
        </mxCell>
        <mxCell id="vWF8Npb9nM2_POeiquQT-30" value="UI Заключения андеррайтера" style="rounded=0;whiteSpace=wrap;html=1;" vertex="1" parent="1">
          <mxGeometry x="-10.560000000000002" y="1280.03" width="160" height="80" as="geometry" />
        </mxCell>
        <mxCell id="vWF8Npb9nM2_POeiquQT-31" value="Сервис по подбору списка возможных исполнителей" style="rounded=0;whiteSpace=wrap;html=1;" vertex="1" parent="1">
          <mxGeometry x="740" y="480" width="160" height="80" as="geometry" />
        </mxCell>
        <mxCell id="vWF8Npb9nM2_POeiquQT-160" style="edgeStyle=orthogonalEdgeStyle;rounded=0;orthogonalLoop=1;jettySize=auto;html=1;startArrow=none;startFill=0;" edge="1" parent="1" source="vWF8Npb9nM2_POeiquQT-33" target="vWF8Npb9nM2_POeiquQT-157">
          <mxGeometry relative="1" as="geometry" />
        </mxCell>
        <mxCell id="vWF8Npb9nM2_POeiquQT-171" value="TYK" style="edgeLabel;html=1;align=center;verticalAlign=middle;resizable=0;points=[];" vertex="1" connectable="0" parent="vWF8Npb9nM2_POeiquQT-160">
          <mxGeometry x="-0.2707" y="-1" relative="1" as="geometry">
            <mxPoint x="4" y="-1" as="offset" />
          </mxGeometry>
        </mxCell>
        <mxCell id="vWF8Npb9nM2_POeiquQT-33" value="Адаптер к факторам кредитного риска" style="shape=step;perimeter=stepPerimeter;whiteSpace=wrap;html=1;fixedSize=1;" vertex="1" parent="1">
          <mxGeometry x="570" y="1140.03" width="160" height="80" as="geometry" />
        </mxCell>
        <mxCell id="vWF8Npb9nM2_POeiquQT-143" value="" style="edgeStyle=orthogonalEdgeStyle;rounded=0;orthogonalLoop=1;jettySize=auto;html=1;startArrow=none;startFill=0;" edge="1" parent="1" source="vWF8Npb9nM2_POeiquQT-34" target="vWF8Npb9nM2_POeiquQT-142">
          <mxGeometry relative="1" as="geometry" />
        </mxCell>
        <mxCell id="vWF8Npb9nM2_POeiquQT-186" value="REST" style="edgeLabel;html=1;align=center;verticalAlign=middle;resizable=0;points=[];fontColor=#000000;" vertex="1" connectable="0" parent="vWF8Npb9nM2_POeiquQT-143">
          <mxGeometry x="-0.2214" y="-1" relative="1" as="geometry">
            <mxPoint as="offset" />
          </mxGeometry>
        </mxCell>
        <mxCell id="vWF8Npb9nM2_POeiquQT-34" value="Сервис файловое хранилище" style="rounded=0;whiteSpace=wrap;html=1;" vertex="1" parent="1">
          <mxGeometry x="740" y="160" width="160" height="80" as="geometry" />
        </mxCell>
        <mxCell id="vWF8Npb9nM2_POeiquQT-162" style="edgeStyle=orthogonalEdgeStyle;rounded=0;orthogonalLoop=1;jettySize=auto;html=1;startArrow=none;startFill=0;" edge="1" parent="1" source="vWF8Npb9nM2_POeiquQT-35" target="vWF8Npb9nM2_POeiquQT-159">
          <mxGeometry relative="1" as="geometry" />
        </mxCell>
        <mxCell id="vWF8Npb9nM2_POeiquQT-35" value="Адаптер к&lt;br&gt;финансовым&lt;br&gt;показателям" style="shape=step;perimeter=stepPerimeter;whiteSpace=wrap;html=1;fixedSize=1;" vertex="1" parent="1">
          <mxGeometry x="570" y="1420.03" width="160" height="80" as="geometry" />
        </mxCell>
        <mxCell id="vWF8Npb9nM2_POeiquQT-161" style="edgeStyle=orthogonalEdgeStyle;rounded=0;orthogonalLoop=1;jettySize=auto;html=1;startArrow=none;startFill=0;" edge="1" parent="1" source="vWF8Npb9nM2_POeiquQT-36" target="vWF8Npb9nM2_POeiquQT-159">
          <mxGeometry relative="1" as="geometry">
            <mxPoint x="790" y="1410" as="targetPoint" />
          </mxGeometry>
        </mxCell>
        <mxCell id="vWF8Npb9nM2_POeiquQT-173" value="TYK" style="edgeLabel;html=1;align=center;verticalAlign=middle;resizable=0;points=[];" vertex="1" connectable="0" parent="vWF8Npb9nM2_POeiquQT-161">
          <mxGeometry x="0.5637" y="1" relative="1" as="geometry">
            <mxPoint y="1" as="offset" />
          </mxGeometry>
        </mxCell>
        <mxCell id="vWF8Npb9nM2_POeiquQT-36" value="Адаптер к&lt;br&gt;рейтинговой&lt;br&gt;системе" style="shape=step;perimeter=stepPerimeter;whiteSpace=wrap;html=1;fixedSize=1;" vertex="1" parent="1">
          <mxGeometry x="570" y="1330.03" width="160" height="80" as="geometry" />
        </mxCell>
        <mxCell id="vWF8Npb9nM2_POeiquQT-37" value="Сервис истории заявки" style="rounded=0;whiteSpace=wrap;html=1;" vertex="1" parent="1">
          <mxGeometry x="195" y="862.5" width="160" height="80" as="geometry" />
        </mxCell>
        <mxCell id="vWF8Npb9nM2_POeiquQT-114" value="" style="edgeStyle=orthogonalEdgeStyle;rounded=0;orthogonalLoop=1;jettySize=auto;html=1;startArrow=none;startFill=0;" edge="1" parent="1" source="vWF8Npb9nM2_POeiquQT-38" target="vWF8Npb9nM2_POeiquQT-113">
          <mxGeometry relative="1" as="geometry" />
        </mxCell>
        <mxCell id="vWF8Npb9nM2_POeiquQT-155" value="REST" style="edgeLabel;html=1;align=center;verticalAlign=middle;resizable=0;points=[];" vertex="1" connectable="0" parent="vWF8Npb9nM2_POeiquQT-114">
          <mxGeometry x="-0.2846" relative="1" as="geometry">
            <mxPoint x="2" as="offset" />
          </mxGeometry>
        </mxCell>
        <mxCell id="vWF8Npb9nM2_POeiquQT-38" value="Адаптер к&lt;br&gt;ИСУ РКС" style="shape=step;perimeter=stepPerimeter;whiteSpace=wrap;html=1;fixedSize=1;" vertex="1" parent="1">
          <mxGeometry x="1040" y="330" width="160" height="80" as="geometry" />
        </mxCell>
        <mxCell id="vWF8Npb9nM2_POeiquQT-115" style="edgeStyle=orthogonalEdgeStyle;rounded=0;orthogonalLoop=1;jettySize=auto;html=1;startArrow=none;startFill=0;" edge="1" parent="1" source="vWF8Npb9nM2_POeiquQT-39" target="vWF8Npb9nM2_POeiquQT-111">
          <mxGeometry relative="1" as="geometry" />
        </mxCell>
        <mxCell id="vWF8Npb9nM2_POeiquQT-153" value="REST" style="edgeLabel;html=1;align=center;verticalAlign=middle;resizable=0;points=[];" vertex="1" connectable="0" parent="vWF8Npb9nM2_POeiquQT-115">
          <mxGeometry x="-0.2914" y="-1" relative="1" as="geometry">
            <mxPoint as="offset" />
          </mxGeometry>
        </mxCell>
        <mxCell id="vWF8Npb9nM2_POeiquQT-39" value="Адаптер к&lt;br&gt;конвейеру КМБ" style="shape=step;perimeter=stepPerimeter;whiteSpace=wrap;html=1;fixedSize=1;" vertex="1" parent="1">
          <mxGeometry x="1180" y="240" width="160" height="80" as="geometry" />
        </mxCell>
        <mxCell id="vWF8Npb9nM2_POeiquQT-106" value="TYK" style="edgeStyle=orthogonalEdgeStyle;rounded=0;orthogonalLoop=1;jettySize=auto;html=1;startArrow=none;startFill=0;" edge="1" parent="1" source="vWF8Npb9nM2_POeiquQT-40" target="vWF8Npb9nM2_POeiquQT-105">
          <mxGeometry x="-0.3333" y="3" relative="1" as="geometry">
            <mxPoint y="1" as="offset" />
          </mxGeometry>
        </mxCell>
        <mxCell id="vWF8Npb9nM2_POeiquQT-40" value="Адаптер к&lt;br&gt;Карточке ЮЛ" style="shape=step;perimeter=stepPerimeter;whiteSpace=wrap;html=1;fixedSize=1;" vertex="1" parent="1">
          <mxGeometry x="1045" y="782.5" width="160" height="80" as="geometry" />
        </mxCell>
        <mxCell id="vWF8Npb9nM2_POeiquQT-83" value="" style="edgeStyle=orthogonalEdgeStyle;rounded=0;orthogonalLoop=1;jettySize=auto;html=1;startArrow=none;startFill=0;" edge="1" parent="1" source="vWF8Npb9nM2_POeiquQT-41" target="vWF8Npb9nM2_POeiquQT-42">
          <mxGeometry relative="1" as="geometry">
            <Array as="points">
              <mxPoint x="680" y="1000" />
            </Array>
          </mxGeometry>
        </mxCell>
        <mxCell id="vWF8Npb9nM2_POeiquQT-201" value="REST" style="edgeLabel;html=1;align=center;verticalAlign=middle;resizable=0;points=[];fontColor=#000000;" vertex="1" connectable="0" parent="vWF8Npb9nM2_POeiquQT-83">
          <mxGeometry x="0.8499" y="2" relative="1" as="geometry">
            <mxPoint y="2" as="offset" />
          </mxGeometry>
        </mxCell>
        <mxCell id="vWF8Npb9nM2_POeiquQT-84" style="edgeStyle=orthogonalEdgeStyle;rounded=0;orthogonalLoop=1;jettySize=auto;html=1;startArrow=none;startFill=0;" edge="1" parent="1" source="vWF8Npb9nM2_POeiquQT-41">
          <mxGeometry relative="1" as="geometry">
            <mxPoint x="1050" y="1100" as="targetPoint" />
            <Array as="points">
              <mxPoint x="670" y="1010" />
              <mxPoint x="990" y="1010" />
              <mxPoint x="990" y="1100" />
              <mxPoint x="1050" y="1100" />
            </Array>
          </mxGeometry>
        </mxCell>
        <mxCell id="vWF8Npb9nM2_POeiquQT-200" value="REST" style="edgeLabel;html=1;align=center;verticalAlign=middle;resizable=0;points=[];fontColor=#000000;" vertex="1" connectable="0" parent="vWF8Npb9nM2_POeiquQT-84">
          <mxGeometry x="0.8446" y="3" relative="1" as="geometry">
            <mxPoint x="5" y="3" as="offset" />
          </mxGeometry>
        </mxCell>
        <mxCell id="vWF8Npb9nM2_POeiquQT-41" value="Сервис нотификаций" style="rounded=0;whiteSpace=wrap;html=1;" vertex="1" parent="1">
          <mxGeometry x="535" y="862.5" width="160" height="80" as="geometry" />
        </mxCell>
        <mxCell id="vWF8Npb9nM2_POeiquQT-104" value="" style="edgeStyle=orthogonalEdgeStyle;rounded=0;orthogonalLoop=1;jettySize=auto;html=1;startArrow=none;startFill=0;" edge="1" parent="1" source="vWF8Npb9nM2_POeiquQT-42" target="vWF8Npb9nM2_POeiquQT-103">
          <mxGeometry relative="1" as="geometry" />
        </mxCell>
        <mxCell id="vWF8Npb9nM2_POeiquQT-189" value="KAFKA" style="edgeLabel;html=1;align=center;verticalAlign=middle;resizable=0;points=[];fontColor=#000000;" vertex="1" connectable="0" parent="vWF8Npb9nM2_POeiquQT-104">
          <mxGeometry x="-0.3098" y="1" relative="1" as="geometry">
            <mxPoint x="3" y="1" as="offset" />
          </mxGeometry>
        </mxCell>
        <mxCell id="vWF8Npb9nM2_POeiquQT-42" value="Адаптер к&lt;br&gt;нотификациям ФРКК" style="shape=step;perimeter=stepPerimeter;whiteSpace=wrap;html=1;fixedSize=1;" vertex="1" parent="1">
          <mxGeometry x="1050" y="960" width="160" height="80" as="geometry" />
        </mxCell>
        <mxCell id="vWF8Npb9nM2_POeiquQT-112" value="" style="edgeStyle=orthogonalEdgeStyle;rounded=0;orthogonalLoop=1;jettySize=auto;html=1;startArrow=none;startFill=0;" edge="1" parent="1" source="vWF8Npb9nM2_POeiquQT-44" target="vWF8Npb9nM2_POeiquQT-111">
          <mxGeometry relative="1" as="geometry" />
        </mxCell>
        <mxCell id="vWF8Npb9nM2_POeiquQT-152" value="Artemis (УИП)" style="edgeLabel;html=1;align=center;verticalAlign=middle;resizable=0;points=[];" vertex="1" connectable="0" parent="vWF8Npb9nM2_POeiquQT-112">
          <mxGeometry y="3" relative="1" as="geometry">
            <mxPoint y="3" as="offset" />
          </mxGeometry>
        </mxCell>
        <mxCell id="vWF8Npb9nM2_POeiquQT-44" value="Адаптер к СУБО Кредитования&lt;br&gt;для ОКП" style="shape=step;perimeter=stepPerimeter;whiteSpace=wrap;html=1;fixedSize=1;" vertex="1" parent="1">
          <mxGeometry x="1040" y="420" width="160" height="80" as="geometry" />
        </mxCell>
        <mxCell id="vWF8Npb9nM2_POeiquQT-45" value="Сервис генерации отчетов" style="rounded=0;whiteSpace=wrap;html=1;" vertex="1" parent="1">
          <mxGeometry x="195" y="772.5" width="160" height="80" as="geometry" />
        </mxCell>
        <mxCell id="vWF8Npb9nM2_POeiquQT-66" style="edgeStyle=orthogonalEdgeStyle;rounded=0;orthogonalLoop=1;jettySize=auto;html=1;exitX=1;exitY=0.5;exitDx=0;exitDy=0;entryX=0;entryY=0.5;entryDx=0;entryDy=0;startArrow=classic;startFill=1;" edge="1" parent="1" source="vWF8Npb9nM2_POeiquQT-46" target="vWF8Npb9nM2_POeiquQT-23">
          <mxGeometry relative="1" as="geometry">
            <Array as="points">
              <mxPoint x="950" y="360" />
              <mxPoint x="950" y="280" />
            </Array>
          </mxGeometry>
        </mxCell>
        <mxCell id="vWF8Npb9nM2_POeiquQT-99" value="Kafka&lt;br&gt;REST" style="edgeLabel;html=1;align=center;verticalAlign=middle;resizable=0;points=[];" vertex="1" connectable="0" parent="vWF8Npb9nM2_POeiquQT-66">
          <mxGeometry x="0.4256" y="-2" relative="1" as="geometry">
            <mxPoint x="-11" y="-2" as="offset" />
          </mxGeometry>
        </mxCell>
        <mxCell id="vWF8Npb9nM2_POeiquQT-67" style="edgeStyle=orthogonalEdgeStyle;rounded=0;orthogonalLoop=1;jettySize=auto;html=1;entryX=0;entryY=0.5;entryDx=0;entryDy=0;startArrow=classic;startFill=1;" edge="1" parent="1" source="vWF8Npb9nM2_POeiquQT-46" target="vWF8Npb9nM2_POeiquQT-38">
          <mxGeometry relative="1" as="geometry">
            <Array as="points">
              <mxPoint x="1060" y="370" />
            </Array>
          </mxGeometry>
        </mxCell>
        <mxCell id="vWF8Npb9nM2_POeiquQT-98" value="REST" style="edgeLabel;html=1;align=center;verticalAlign=middle;resizable=0;points=[];" vertex="1" connectable="0" parent="vWF8Npb9nM2_POeiquQT-67">
          <mxGeometry x="0.2637" relative="1" as="geometry">
            <mxPoint x="-21" as="offset" />
          </mxGeometry>
        </mxCell>
        <mxCell id="vWF8Npb9nM2_POeiquQT-68" style="edgeStyle=orthogonalEdgeStyle;rounded=0;orthogonalLoop=1;jettySize=auto;html=1;entryX=0;entryY=0.5;entryDx=0;entryDy=0;exitX=1;exitY=0.75;exitDx=0;exitDy=0;startArrow=classic;startFill=1;" edge="1" parent="1" source="vWF8Npb9nM2_POeiquQT-46" target="vWF8Npb9nM2_POeiquQT-44">
          <mxGeometry relative="1" as="geometry">
            <Array as="points">
              <mxPoint x="950" y="380" />
              <mxPoint x="950" y="460" />
            </Array>
          </mxGeometry>
        </mxCell>
        <mxCell id="vWF8Npb9nM2_POeiquQT-97" value="Kafka" style="edgeLabel;html=1;align=center;verticalAlign=middle;resizable=0;points=[];" vertex="1" connectable="0" parent="vWF8Npb9nM2_POeiquQT-68">
          <mxGeometry x="0.5013" relative="1" as="geometry">
            <mxPoint x="-20" as="offset" />
          </mxGeometry>
        </mxCell>
        <mxCell id="vWF8Npb9nM2_POeiquQT-81" style="edgeStyle=orthogonalEdgeStyle;rounded=0;orthogonalLoop=1;jettySize=auto;html=1;startArrow=classic;startFill=1;entryX=0;entryY=0.5;entryDx=0;entryDy=0;" edge="1" parent="1" source="vWF8Npb9nM2_POeiquQT-46" target="vWF8Npb9nM2_POeiquQT-29">
          <mxGeometry relative="1" as="geometry">
            <mxPoint x="1040" y="540" as="targetPoint" />
            <Array as="points">
              <mxPoint x="930" y="350" />
              <mxPoint x="930" y="150" />
            </Array>
          </mxGeometry>
        </mxCell>
        <mxCell id="vWF8Npb9nM2_POeiquQT-96" value="REST" style="edgeLabel;html=1;align=center;verticalAlign=middle;resizable=0;points=[];" vertex="1" connectable="0" parent="vWF8Npb9nM2_POeiquQT-81">
          <mxGeometry x="0.7883" y="2" relative="1" as="geometry">
            <mxPoint x="-8" y="2" as="offset" />
          </mxGeometry>
        </mxCell>
        <mxCell id="vWF8Npb9nM2_POeiquQT-123" style="edgeStyle=orthogonalEdgeStyle;rounded=0;orthogonalLoop=1;jettySize=auto;html=1;startArrow=none;startFill=0;exitX=0;exitY=0.5;exitDx=0;exitDy=0;" edge="1" parent="1" source="vWF8Npb9nM2_POeiquQT-46">
          <mxGeometry relative="1" as="geometry">
            <mxPoint x="740" y="210" as="targetPoint" />
            <Array as="points">
              <mxPoint x="700" y="360" />
              <mxPoint x="700" y="210" />
              <mxPoint x="740" y="210" />
            </Array>
          </mxGeometry>
        </mxCell>
        <mxCell id="vWF8Npb9nM2_POeiquQT-185" value="REST" style="edgeLabel;html=1;align=center;verticalAlign=middle;resizable=0;points=[];fontColor=#000000;" vertex="1" connectable="0" parent="vWF8Npb9nM2_POeiquQT-123">
          <mxGeometry x="-0.0589" y="1" relative="1" as="geometry">
            <mxPoint as="offset" />
          </mxGeometry>
        </mxCell>
        <mxCell id="vWF8Npb9nM2_POeiquQT-46" value="Сервис управления&lt;br&gt;бизнес-процессами&lt;br&gt;(conveyor)" style="rounded=0;whiteSpace=wrap;html=1;" vertex="1" parent="1">
          <mxGeometry x="740" y="320" width="160" height="80" as="geometry" />
        </mxCell>
        <mxCell id="vWF8Npb9nM2_POeiquQT-164" value="" style="edgeStyle=orthogonalEdgeStyle;rounded=0;orthogonalLoop=1;jettySize=auto;html=1;startArrow=none;startFill=0;" edge="1" parent="1" source="vWF8Npb9nM2_POeiquQT-47" target="vWF8Npb9nM2_POeiquQT-163">
          <mxGeometry relative="1" as="geometry" />
        </mxCell>
        <mxCell id="vWF8Npb9nM2_POeiquQT-172" value="TYK" style="edgeLabel;html=1;align=center;verticalAlign=middle;resizable=0;points=[];" vertex="1" connectable="0" parent="vWF8Npb9nM2_POeiquQT-164">
          <mxGeometry x="0.1556" y="-1" relative="1" as="geometry">
            <mxPoint x="-11" y="-1" as="offset" />
          </mxGeometry>
        </mxCell>
        <mxCell id="vWF8Npb9nM2_POeiquQT-47" value="Адаптер к&lt;br&gt;лимитному сервису" style="shape=step;perimeter=stepPerimeter;whiteSpace=wrap;html=1;fixedSize=1;" vertex="1" parent="1">
          <mxGeometry x="570" y="1230.03" width="160" height="80" as="geometry" />
        </mxCell>
        <mxCell id="vWF8Npb9nM2_POeiquQT-133" style="edgeStyle=orthogonalEdgeStyle;rounded=0;orthogonalLoop=1;jettySize=auto;html=1;startArrow=none;startFill=0;fillColor=#d5e8d4;strokeColor=#82b366;entryX=0.09;entryY=0.369;entryDx=0;entryDy=0;entryPerimeter=0;" edge="1" parent="1" source="vWF8Npb9nM2_POeiquQT-48" target="vWF8Npb9nM2_POeiquQT-47">
          <mxGeometry relative="1" as="geometry">
            <mxPoint x="590" y="1270.03" as="targetPoint" />
            <Array as="points">
              <mxPoint x="584" y="1260.03" />
            </Array>
          </mxGeometry>
        </mxCell>
        <mxCell id="vWF8Npb9nM2_POeiquQT-191" value="REST" style="edgeLabel;html=1;align=center;verticalAlign=middle;resizable=0;points=[];fontColor=#000000;" vertex="1" connectable="0" parent="vWF8Npb9nM2_POeiquQT-133">
          <mxGeometry x="0.1133" y="-1" relative="1" as="geometry">
            <mxPoint as="offset" />
          </mxGeometry>
        </mxCell>
        <mxCell id="vWF8Npb9nM2_POeiquQT-137" style="edgeStyle=orthogonalEdgeStyle;rounded=0;orthogonalLoop=1;jettySize=auto;html=1;startArrow=none;startFill=0;fillColor=#f8cecc;strokeColor=#b85450;" edge="1" parent="1" source="vWF8Npb9nM2_POeiquQT-48">
          <mxGeometry relative="1" as="geometry">
            <mxPoint x="590" y="1450.03" as="targetPoint" />
            <Array as="points">
              <mxPoint x="520" y="1300.03" />
              <mxPoint x="520" y="1450.03" />
            </Array>
          </mxGeometry>
        </mxCell>
        <mxCell id="vWF8Npb9nM2_POeiquQT-193" value="REST" style="edgeLabel;html=1;align=center;verticalAlign=middle;resizable=0;points=[];fontColor=#000000;" vertex="1" connectable="0" parent="vWF8Npb9nM2_POeiquQT-137">
          <mxGeometry x="-0.6372" y="1" relative="1" as="geometry">
            <mxPoint as="offset" />
          </mxGeometry>
        </mxCell>
        <mxCell id="vWF8Npb9nM2_POeiquQT-196" value="REST" style="edgeLabel;html=1;align=center;verticalAlign=middle;resizable=0;points=[];fontColor=#000000;" vertex="1" connectable="0" parent="vWF8Npb9nM2_POeiquQT-137">
          <mxGeometry x="0.7049" y="-1" relative="1" as="geometry">
            <mxPoint x="4" as="offset" />
          </mxGeometry>
        </mxCell>
        <mxCell id="vWF8Npb9nM2_POeiquQT-138" style="edgeStyle=orthogonalEdgeStyle;rounded=0;orthogonalLoop=1;jettySize=auto;html=1;startArrow=none;startFill=0;fillColor=#dae8fc;strokeColor=#6c8ebf;entryX=0.095;entryY=0.377;entryDx=0;entryDy=0;entryPerimeter=0;" edge="1" parent="1" source="vWF8Npb9nM2_POeiquQT-48" target="vWF8Npb9nM2_POeiquQT-36">
          <mxGeometry relative="1" as="geometry">
            <mxPoint x="580" y="1360.03" as="targetPoint" />
            <Array as="points">
              <mxPoint x="460" y="1270.03" />
              <mxPoint x="460" y="1360.03" />
            </Array>
          </mxGeometry>
        </mxCell>
        <mxCell id="vWF8Npb9nM2_POeiquQT-194" value="REST" style="edgeLabel;html=1;align=center;verticalAlign=middle;resizable=0;points=[];fontColor=#000000;" vertex="1" connectable="0" parent="vWF8Npb9nM2_POeiquQT-138">
          <mxGeometry x="0.2796" relative="1" as="geometry">
            <mxPoint as="offset" />
          </mxGeometry>
        </mxCell>
        <mxCell id="vWF8Npb9nM2_POeiquQT-48" value="Заключение малого бизнеса" style="rounded=0;whiteSpace=wrap;html=1;" vertex="1" parent="1">
          <mxGeometry x="280" y="1230.03" width="160" height="80" as="geometry" />
        </mxCell>
        <mxCell id="vWF8Npb9nM2_POeiquQT-134" style="edgeStyle=orthogonalEdgeStyle;rounded=0;orthogonalLoop=1;jettySize=auto;html=1;startArrow=none;startFill=0;fillColor=#dae8fc;strokeColor=#6c8ebf;" edge="1" parent="1" source="vWF8Npb9nM2_POeiquQT-49" target="vWF8Npb9nM2_POeiquQT-36">
          <mxGeometry relative="1" as="geometry">
            <Array as="points">
              <mxPoint x="550" y="1380.03" />
              <mxPoint x="550" y="1380.03" />
            </Array>
          </mxGeometry>
        </mxCell>
        <mxCell id="vWF8Npb9nM2_POeiquQT-195" value="REST" style="edgeLabel;html=1;align=center;verticalAlign=middle;resizable=0;points=[];fontColor=#000000;" vertex="1" connectable="0" parent="vWF8Npb9nM2_POeiquQT-134">
          <mxGeometry x="-0.6541" y="1" relative="1" as="geometry">
            <mxPoint as="offset" />
          </mxGeometry>
        </mxCell>
        <mxCell id="vWF8Npb9nM2_POeiquQT-136" style="edgeStyle=orthogonalEdgeStyle;rounded=0;orthogonalLoop=1;jettySize=auto;html=1;entryX=0.1;entryY=0.635;entryDx=0;entryDy=0;startArrow=none;startFill=0;fillColor=#f8cecc;strokeColor=#b85450;entryPerimeter=0;" edge="1" parent="1" source="vWF8Npb9nM2_POeiquQT-49" target="vWF8Npb9nM2_POeiquQT-35">
          <mxGeometry relative="1" as="geometry">
            <Array as="points">
              <mxPoint x="450" y="1410.03" />
              <mxPoint x="450" y="1470.03" />
              <mxPoint x="586" y="1470.03" />
            </Array>
          </mxGeometry>
        </mxCell>
        <mxCell id="vWF8Npb9nM2_POeiquQT-197" value="REST" style="edgeLabel;html=1;align=center;verticalAlign=middle;resizable=0;points=[];fontColor=#000000;" vertex="1" connectable="0" parent="vWF8Npb9nM2_POeiquQT-136">
          <mxGeometry x="0.4185" y="-1" relative="1" as="geometry">
            <mxPoint x="-16" as="offset" />
          </mxGeometry>
        </mxCell>
        <mxCell id="vWF8Npb9nM2_POeiquQT-140" style="edgeStyle=orthogonalEdgeStyle;rounded=0;orthogonalLoop=1;jettySize=auto;html=1;startArrow=none;startFill=0;fillColor=#d5e8d4;strokeColor=#82b366;entryX=0.094;entryY=0.618;entryDx=0;entryDy=0;entryPerimeter=0;" edge="1" parent="1" source="vWF8Npb9nM2_POeiquQT-49" target="vWF8Npb9nM2_POeiquQT-47">
          <mxGeometry relative="1" as="geometry">
            <mxPoint x="590" y="1280.03" as="targetPoint" />
            <Array as="points">
              <mxPoint x="450" y="1340.03" />
              <mxPoint x="450" y="1280.03" />
              <mxPoint x="570" y="1280.03" />
            </Array>
          </mxGeometry>
        </mxCell>
        <mxCell id="vWF8Npb9nM2_POeiquQT-192" value="REST" style="edgeLabel;html=1;align=center;verticalAlign=middle;resizable=0;points=[];fontColor=#000000;" vertex="1" connectable="0" parent="vWF8Npb9nM2_POeiquQT-140">
          <mxGeometry x="0.454" y="-1" relative="1" as="geometry">
            <mxPoint as="offset" />
          </mxGeometry>
        </mxCell>
        <mxCell id="vWF8Npb9nM2_POeiquQT-49" value="Заключение среднего бизнеса" style="rounded=0;whiteSpace=wrap;html=1;" vertex="1" parent="1">
          <mxGeometry x="280" y="1330.03" width="160" height="80" as="geometry" />
        </mxCell>
        <mxCell id="vWF8Npb9nM2_POeiquQT-50" value="Заключение вопросных заявок" style="rounded=0;whiteSpace=wrap;html=1;fillColor=#fad9d5;strokeColor=#ae4132;" vertex="1" parent="1">
          <mxGeometry x="280" y="1420.03" width="160" height="80" as="geometry" />
        </mxCell>
        <mxCell id="vWF8Npb9nM2_POeiquQT-52" value="Адаптер к&lt;br&gt;сессионным данным" style="shape=step;perimeter=stepPerimeter;whiteSpace=wrap;html=1;fixedSize=1;fillColor=#fad7ac;strokeColor=#b46504;" vertex="1" parent="1">
          <mxGeometry x="1440" y="960" width="160" height="80" as="geometry" />
        </mxCell>
        <mxCell id="vWF8Npb9nM2_POeiquQT-55" value="Ролевая&lt;br&gt;модель" style="ellipse;shape=cloud;whiteSpace=wrap;html=1;" vertex="1" parent="1">
          <mxGeometry x="540" y="255" width="120" height="80" as="geometry" />
        </mxCell>
        <mxCell id="vWF8Npb9nM2_POeiquQT-56" value="Стриминговая платформа" style="ellipse;shape=cloud;whiteSpace=wrap;html=1;fillColor=#fad7ac;strokeColor=#b46504;" vertex="1" parent="1">
          <mxGeometry x="760" y="900" width="120" height="80" as="geometry" />
        </mxCell>
        <mxCell id="vWF8Npb9nM2_POeiquQT-110" value="" style="edgeStyle=orthogonalEdgeStyle;rounded=0;orthogonalLoop=1;jettySize=auto;html=1;startArrow=none;startFill=0;" edge="1" parent="1" source="vWF8Npb9nM2_POeiquQT-58" target="vWF8Npb9nM2_POeiquQT-109">
          <mxGeometry relative="1" as="geometry" />
        </mxCell>
        <mxCell id="vWF8Npb9nM2_POeiquQT-188" value="?" style="edgeLabel;html=1;align=center;verticalAlign=middle;resizable=0;points=[];fontColor=#000000;" vertex="1" connectable="0" parent="vWF8Npb9nM2_POeiquQT-110">
          <mxGeometry x="-0.2194" y="-1" relative="1" as="geometry">
            <mxPoint y="-1" as="offset" />
          </mxGeometry>
        </mxCell>
        <mxCell id="vWF8Npb9nM2_POeiquQT-58" value="Адаптер к&lt;br&gt;ГСЗ" style="shape=step;perimeter=stepPerimeter;whiteSpace=wrap;html=1;fixedSize=1;" vertex="1" parent="1">
          <mxGeometry x="1045" y="692.5" width="160" height="80" as="geometry" />
        </mxCell>
        <mxCell id="vWF8Npb9nM2_POeiquQT-64" value="Бизнес-процесс заявки" style="text;html=1;align=center;verticalAlign=middle;resizable=0;points=[];autosize=1;strokeColor=none;fillColor=none;fontStyle=1" vertex="1" parent="1">
          <mxGeometry x="740" y="280" width="160" height="30" as="geometry" />
        </mxCell>
        <mxCell id="vWF8Npb9nM2_POeiquQT-85" value="SMTP" style="ellipse;shape=cloud;whiteSpace=wrap;html=1;fillColor=#fff2cc;strokeColor=#d6b656;" vertex="1" parent="1">
          <mxGeometry x="1290" y="1060" width="120" height="80" as="geometry" />
        </mxCell>
        <mxCell id="vWF8Npb9nM2_POeiquQT-87" value="Сервис маршрутов заявки" style="rounded=0;whiteSpace=wrap;html=1;" vertex="1" parent="1">
          <mxGeometry x="365" y="862.5" width="160" height="80" as="geometry" />
        </mxCell>
        <mxCell id="vWF8Npb9nM2_POeiquQT-91" style="edgeStyle=orthogonalEdgeStyle;rounded=0;orthogonalLoop=1;jettySize=auto;html=1;entryX=1;entryY=0.5;entryDx=0;entryDy=0;startArrow=none;startFill=0;" edge="1" parent="1" source="vWF8Npb9nM2_POeiquQT-89" target="vWF8Npb9nM2_POeiquQT-82">
          <mxGeometry relative="1" as="geometry" />
        </mxCell>
        <mxCell id="vWF8Npb9nM2_POeiquQT-89" value="Kafka" style="ellipse;shape=cloud;whiteSpace=wrap;html=1;" vertex="1" parent="1">
          <mxGeometry x="760" y="816.25" width="120" height="80" as="geometry" />
        </mxCell>
        <mxCell id="vWF8Npb9nM2_POeiquQT-102" value="Исторические данные&lt;br&gt;по заявке" style="text;html=1;align=center;verticalAlign=middle;resizable=0;points=[];autosize=1;strokeColor=none;fillColor=none;" vertex="1" parent="1">
          <mxGeometry x="370" y="790" width="150" height="40" as="geometry" />
        </mxCell>
        <mxCell id="vWF8Npb9nM2_POeiquQT-174" style="edgeStyle=orthogonalEdgeStyle;rounded=0;orthogonalLoop=1;jettySize=auto;html=1;entryX=0;entryY=0.5;entryDx=0;entryDy=0;startArrow=none;startFill=0;" edge="1" parent="1" source="vWF8Npb9nM2_POeiquQT-103" target="vWF8Npb9nM2_POeiquQT-52">
          <mxGeometry relative="1" as="geometry" />
        </mxCell>
        <mxCell id="vWF8Npb9nM2_POeiquQT-103" value="ФРКК" style="ellipse;shape=cloud;whiteSpace=wrap;html=1;fillColor=#fad7ac;strokeColor=#b46504;" vertex="1" parent="1">
          <mxGeometry x="1290" y="960" width="120" height="80" as="geometry" />
        </mxCell>
        <mxCell id="vWF8Npb9nM2_POeiquQT-105" value="Карточка ЮЛ" style="ellipse;shape=cloud;whiteSpace=wrap;html=1;" vertex="1" parent="1">
          <mxGeometry x="1250" y="782.5" width="120" height="80" as="geometry" />
        </mxCell>
        <mxCell id="vWF8Npb9nM2_POeiquQT-107" value="КроссСсылки&lt;br&gt;ЮЛ" style="ellipse;shape=cloud;whiteSpace=wrap;html=1;" vertex="1" parent="1">
          <mxGeometry x="1250" y="602.5" width="120" height="80" as="geometry" />
        </mxCell>
        <mxCell id="vWF8Npb9nM2_POeiquQT-109" value="ГСЗ" style="ellipse;shape=cloud;whiteSpace=wrap;html=1;fillColor=#f8cecc;strokeColor=#b85450;" vertex="1" parent="1">
          <mxGeometry x="1250" y="692.5" width="120" height="80" as="geometry" />
        </mxCell>
        <mxCell id="vWF8Npb9nM2_POeiquQT-111" value="СУБО&lt;br&gt;Кредитования" style="ellipse;shape=cloud;whiteSpace=wrap;html=1;" vertex="1" parent="1">
          <mxGeometry x="1370" y="330" width="120" height="80" as="geometry" />
        </mxCell>
        <mxCell id="vWF8Npb9nM2_POeiquQT-113" value="ИСУ РКС" style="ellipse;shape=cloud;whiteSpace=wrap;html=1;" vertex="1" parent="1">
          <mxGeometry x="1250" y="330" width="120" height="80" as="geometry" />
        </mxCell>
        <mxCell id="vWF8Npb9nM2_POeiquQT-116" value="ПКР2" style="ellipse;shape=cloud;whiteSpace=wrap;html=1;" vertex="1" parent="1">
          <mxGeometry x="1470" y="240" width="120" height="80" as="geometry" />
        </mxCell>
        <mxCell id="vWF8Npb9nM2_POeiquQT-142" value="СХК" style="ellipse;shape=cloud;whiteSpace=wrap;html=1;" vertex="1" parent="1">
          <mxGeometry x="760" y="40" width="120" height="80" as="geometry" />
        </mxCell>
        <mxCell id="vWF8Npb9nM2_POeiquQT-150" value="UI ИСУ РА" style="text;html=1;align=center;verticalAlign=middle;resizable=0;points=[];autosize=1;strokeColor=none;fillColor=none;" vertex="1" parent="1">
          <mxGeometry x="29.439999999999998" y="375" width="80" height="30" as="geometry" />
        </mxCell>
        <mxCell id="vWF8Npb9nM2_POeiquQT-157" value="КУРС" style="ellipse;shape=cloud;whiteSpace=wrap;html=1;fillColor=#fff2cc;strokeColor=#d6b656;" vertex="1" parent="1">
          <mxGeometry x="820" y="1140" width="120" height="80" as="geometry" />
        </mxCell>
        <mxCell id="vWF8Npb9nM2_POeiquQT-159" value="ФКОР" style="ellipse;shape=cloud;whiteSpace=wrap;html=1;fillColor=#fff2cc;strokeColor=#d6b656;" vertex="1" parent="1">
          <mxGeometry x="820" y="1370" width="120" height="80" as="geometry" />
        </mxCell>
        <mxCell id="vWF8Npb9nM2_POeiquQT-163" value="Лимитный&lt;br&gt;сервис" style="ellipse;shape=cloud;whiteSpace=wrap;html=1;fillColor=#fff2cc;strokeColor=#d6b656;" vertex="1" parent="1">
          <mxGeometry x="820" y="1230.03" width="120" height="80" as="geometry" />
        </mxCell>
        <mxCell id="vWF8Npb9nM2_POeiquQT-176" value="Обогащение по клиенту и его группе" style="text;html=1;strokeColor=none;fillColor=none;align=center;verticalAlign=middle;whiteSpace=wrap;rounded=0;dashed=1;fontStyle=1" vertex="1" parent="1">
          <mxGeometry x="1025" y="575" width="340" height="20" as="geometry" />
        </mxCell>
        <mxCell id="vWF8Npb9nM2_POeiquQT-177" value="Заключение и виджеты андеррайтера" style="text;html=1;strokeColor=none;fillColor=none;align=center;verticalAlign=middle;whiteSpace=wrap;rounded=0;dashed=1;fontStyle=1" vertex="1" parent="1">
          <mxGeometry x="355" y="1076" width="278" height="40" as="geometry" />
        </mxCell>
        <mxCell id="vWF8Npb9nM2_POeiquQT-179" value="Фронтальное приложение ФРКК" style="text;html=1;strokeColor=none;fillColor=none;align=center;verticalAlign=middle;whiteSpace=wrap;rounded=0;dashed=1;fontStyle=1" vertex="1" parent="1">
          <mxGeometry x="1160" y="934.25" width="300" height="23.75" as="geometry" />
        </mxCell>
      </root>
    </mxGraphModel>
  </diagram>
</mxfile>
